{
  "development": {
    "username": "root",
    "password": "password",
    "database": "EXPENSE_TRACKER_DEV",
    "host": "127.0.0.1",
    "dialect": "mysql"
  },
  "test": {
    "username": "root",
    "password": null,
    "database": "EXPENSE_TRACKER_TEST",
    "host": "127.0.0.1",
    "dialect": "mysql"
  },
  "production": {
    "username": "root",
    "password": null,
    "database": "EXPENSE_TRACKER",
    "host": "127.0.0.1",
    "dialect": "mysql"
  }
}
